…
          296            69 
> missing_halda <- halda %>%
+   summarise(across(everything(), ~sum(is.na(.x)))) %>%
+   pivot_longer(everything(), names_to = "variable", values_to = "missing_n") %>%
+   mutate(missing_pct = round(100 * missing_n / nrow(halda), 2)) %>%
+   arrange(desc(missing_pct))
> 
> write_csv(missing_halda, "outputs/tables/table01_halda_missingness.csv")
>                                                                                                           
> missing_halda %>%
+   gt() %>%
+   fmt_number(columns = where(is.numeric), decimals = 2) %>%
+   gtsave("outputs/tables/table01_halda_missingness.html")
> missing_halda
# A tibble: 38 × 3
   variable  missing_n missing_pct
   <chr>         <int>       <dbl>
 1 cod             317        86.8
 2 ammonia_n       305        83.6
 3 sulfate         305        83.6
 4 phosphate       305        83.6
 5 nitrate_n       305        83.6
 6 nitrite_n       305        83.6
 7 fe              305        83.6
 8 bod5            269        73.7
 9 date              0         0  
10 ph                0         0  
# ℹ 28 more rows
# ℹ Use `print(n = ...)` to see more rows
…
12 phosphate       60       305   0.857    0.493    0.69  4.98e-1   1.11   0.29  2.31e+0
13 salinity       365         0   0.108    0.180    0.02  1   e-2   0.12   0     1.25e+0
14 sulfate         60       305  29.8     12.7     29     1.87e+1  36.5    9     6.1 e+1
15 tds            365         0 195.     281.      72     3.1 e+1 225     10     1.99e+3
16 temperature    365         0  26.3      3.11    27.5   2.42e+1  28.9   19.3   3.2 e+1
17 turbidity      365         0 256.     144.     225     1.55e+2 318     50.3   9.92e+2
> write_csv(halda_summary, "outputs/tables/table02_halda_descriptive_statistics.csv")
>                                                                                     
> halda_summary %>%
+   gt() %>%
+   fmt_number(columns = where(is.numeric), decimals = 3) %>%
+   gtsave("outputs/tables/table02_halda_descriptive_statistics.html")
> halda %>%
+   select(ph, turbidity, conductivity)
# A tibble: 365 × 3
      ph turbidity conductivity
   <dbl>     <dbl>        <dbl>
 1  7.18      202.         1156
 2  7.21      227           930
 3  7.2       220           422
 4  7.23      312           310
 5  7.2       225           498
 6  7.22      210           334
 7  7.25      142.          550
 8  7.18      180           450
 9  7.15      165           579
10  7.2       185           606
# ℹ 355 more rows
# ℹ Use `print(n = ...)` to see more rows
…
+     iqr = IQR(value, na.rm = TRUE),
+     mean = mean(value, na.rm = TRUE),
+     sd = sd(value, na.rm = TRUE),
+     .groups = "drop"
+   )
> 
> write_csv(seasonal_summary, "outputs/tables/table04_seasonal_summary.csv")
>                                                                                     
> seasonal_summary %>%
+   gt() %>%
+   fmt_number(columns = where(is.numeric), decimals = 3) %>%
+   gtsave("outputs/tables/table04_seasonal_summary.html")
> 
> seasonal_summary
# A tibble: 68 × 7
   season     parameter        n  median      iqr      mean        sd
   <fct>      <chr>        <int>   <dbl>    <dbl>     <dbl>     <dbl>
 1 Dry/winter alkalinity      90  58.5     6       59.3       4.11   
 2 Dry/winter ammonia_n       15   0.74    0.605    0.87      0.334  
 3 Dry/winter bod5            24   0.78    0.34     0.785     0.222  
 4 Dry/winter chloride        90 142.    226.     214.      239.     
 5 Dry/winter cod             12  33.4    11.1     32.9       8.42   
 6 Dry/winter conductivity    90 508     690.     739.      732.     
 7 Dry/winter do_mg_l         90   6.94    0.315    6.89      0.264  
 8 Dry/winter fe              15   1.5     0.31     1.53      0.265  
 9 Dry/winter nitrate_n       15   1.17    0.835    1.10      0.544  
10 Dry/winter nitrite_n       15   0.006   0.0035   0.00787   0.00437
# ℹ 58 more rows
# ℹ Use `print(n = ...)` to see more rows
…
+     title = "Spearman correlation among Halda River water-quality indicators",
+     x = NULL,
+     y = NULL,
+     fill = "rho"
+   )
> 
> ggsave(
+   "outputs/figures/fig05_correlation_heatmap.png",
+   fig_corr,
+   width = 9,
+   height = 8,
+   dpi = 600
+ )
> corr_df 
# A tibble: 289 × 3
   var1  var2            rho
   <chr> <chr>         <dbl>
 1 ph    ph            1    
 2 ph    turbidity    -0.574
 3 ph    temperature  -0.564
 4 ph    alkalinity    0.837
 5 ph    conductivity  0.580
 6 ph    tds           0.579
 7 ph    chloride      0.589
 8 ph    salinity      0.584
 9 ph    do_mg_l       0.559
10 ph    bod5         -0.381
# ℹ 279 more rows
# ℹ Use `print(n = ...)` to see more rows
…
+   stat_ellipse(linewidth = 0.8) +
+   labs(
+     title = "Distribution shift between Kaggle benchmark and Halda field chemistry",
+     color = "Dataset"
+   )
> 
> ggsave(
+   "outputs/figures/fig06_domain_shift_pca.png",
+   fig_pca,
+   width = 7,
+   height = 5,
+   dpi = 600
+ )
> kaggle_common
# A tibble: 3,276 × 6
   source              ph    tds sulfate conductivity turbidity
   <chr>            <dbl>  <dbl>   <dbl>        <dbl>     <dbl>
 1 Kaggle benchmark NA    20791.    369.         564.      2.96
 2 Kaggle benchmark  3.72 18630.     NA          593.      4.50
 3 Kaggle benchmark  8.10 19910.     NA          419.      3.06
 4 Kaggle benchmark  8.32 22018.    357.         363.      4.63
 5 Kaggle benchmark  9.09 17979.    310.         398.      4.08
 6 Kaggle benchmark  5.58 28749.    327.         280.      2.56
 7 Kaggle benchmark 10.2  28750.    394.         284.      2.67
 8 Kaggle benchmark  8.64 13672.    303.         475.      4.40
 9 Kaggle benchmark NA    14286.    269.         389.      3.60
10 Kaggle benchmark 11.2  25485.    404.         564.      4.37
# ℹ 3,266 more rows
# ℹ Use `print(n = ...)` to see more rows
> halda_common 
# A tibble: 365 × 6
   source               ph   tds sulfate conductivity turbidity
   <chr>             <dbl> <dbl>   <dbl>        <dbl>     <dbl>
 1 Halda River field  7.18   578      23         1156      202.
 2 Halda River field  7.21   465      19          930      227 
 3 Halda River field  7.2    211      26          422      220 
 4 Halda River field  7.23   155      31          310      312 
 5 Halda River field  7.2    249      29          498      225 
 6 Halda River field  7.22   167      NA          334      210 
 7 Halda River field  7.25   275      NA          550      142.
 8 Halda River field  7.18   225      NA          450      180 
 9 Halda River field  7.15   289      NA          579      165 
10 Halda River field  7.2    303      NA          606      185 
# ℹ 355 more rows
# ℹ Use `print(n = ...)` to see more rows
> common_combined
# A tibble: 2,176 × 6
   source              ph    tds sulfate conductivity turbidity
   <chr>            <dbl>  <dbl>   <dbl>        <dbl>     <dbl>
 1 Kaggle benchmark  8.32 22018.    357.         363.      4.63
 2 Kaggle benchmark  9.09 17979.    310.         398.      4.08
 3 Kaggle benchmark  5.58 28749.    327.         280.      2.56
 4 Kaggle benchmark 10.2  28750.    394.         284.      2.67
 5 Kaggle benchmark  8.64 13672.    303.         475.      4.40
 6 Kaggle benchmark 11.2  25485.    404.         564.      4.37
 7 Kaggle benchmark  7.36 32453.    327.         425.      3.66
 8 Kaggle benchmark  7.12 18731.    282.         348.      3.45
 9 Kaggle benchmark  6.35 41065.    364.         517.      4.38
10 Kaggle benchmark  9.18 24041.    398.         478.      4.50
# ℹ 2,166 more rows
# ℹ Use `print(n = ...)` to see more rows
> pca_scores
# A tibble: 2,176 × 3
      PC1    PC2 source          
    <dbl>  <dbl> <chr>           
 1  0.419 -0.640 Kaggle benchmark
 2 -0.230 -1.17  Kaggle benchmark
 3  0.518  1.39  Kaggle benchmark
 4  1.09  -1.44  Kaggle benchmark
 5 -0.501 -1.20  Kaggle benchmark
 6  0.939 -2.73  Kaggle benchmark
 7  0.602  0.178 Kaggle benchmark
 8 -0.413  0.161 Kaggle benchmark
 9  1.34   0.737 Kaggle benchmark
10  0.873 -1.43  Kaggle benchmark
# ℹ 2,166 more rows
# ℹ Use `print(n = ...)` to see more rows
…
not_high_risk     high_risk 
          296            69 
> halda_model_df
# A tibble: 365 × 19
   risk_label    season        ph turbidity temperature alkalinity conductivity   tds
   <fct>         <fct>      <dbl>     <dbl>       <dbl>      <dbl>        <dbl> <dbl>
 1 high_risk     Dry/winter  7.18      202.        20.5       56.5         1156   578
 2 high_risk     Dry/winter  7.21      227         19.3       55            930   465
 3 high_risk     Dry/winter  7.2       220         21         54.5          422   211
 4 high_risk     Dry/winter  7.23      312         21.3       56            310   155
 5 high_risk     Dry/winter  7.2       225         20.5       56.5          498   249
 6 not_high_risk Dry/winter  7.22      210         21.4       59.5          334   167
 7 not_high_risk Dry/winter  7.25      142.        20.8       62            550   275
 8 not_high_risk Dry/winter  7.18      180         21.3       55            450   225
 9 not_high_risk Dry/winter  7.15      165         21.3       55.5          579   289
10 not_high_risk Dry/winter  7.2       185         20.4       56            606   303
# ℹ 355 more rows
# ℹ 11 more variables: chloride <dbl>, salinity <dbl>, do_mg_l <dbl>, bod5 <dbl>,
#   cod <dbl>, ammonia_n <dbl>, sulfate <dbl>, phosphate <dbl>, nitrate_n <dbl>,
#   nitrite_n <dbl>, fe <dbl>
# ℹ Use `print(n = ...)` to see more rows
…
not_high_risk     high_risk 
          296            69 
>   halda_model_df
# A tibble: 365 × 19
   risk_label    season        ph turbidity temperature alkalinity conductivity   tds
   <fct>         <fct>      <dbl>     <dbl>       <dbl>      <dbl>        <dbl> <dbl>
 1 high_risk     Dry/winter  7.18      202.        20.5       56.5         1156   578
 2 high_risk     Dry/winter  7.21      227         19.3       55            930   465
 3 high_risk     Dry/winter  7.2       220         21         54.5          422   211
 4 high_risk     Dry/winter  7.23      312         21.3       56            310   155
 5 high_risk     Dry/winter  7.2       225         20.5       56.5          498   249
 6 not_high_risk Dry/winter  7.22      210         21.4       59.5          334   167
 7 not_high_risk Dry/winter  7.25      142.        20.8       62            550   275
 8 not_high_risk Dry/winter  7.18      180         21.3       55            450   225
 9 not_high_risk Dry/winter  7.15      165         21.3       55.5          579   289
10 not_high_risk Dry/winter  7.2       185         20.4       56            606   303
# ℹ 355 more rows
# ℹ 11 more variables: chloride <dbl>, salinity <dbl>, do_mg_l <dbl>, bod5 <dbl>,
#   cod <dbl>, ammonia_n <dbl>, sulfate <dbl>, phosphate <dbl>, nitrate_n <dbl>,
#   nitrite_n <dbl>, fe <dbl>
# ℹ Use `print(n = ...)` to see more rows
> folds_halda <- vfold_cv(
+   halda_model_df,
+   v = 5,
+   repeats = 5,
+   strata = risk_label
+ )
> 
> rec_halda <- recipe(risk_label ~ ., data = halda_model_df) %>%
+   step_impute_median(all_numeric_predictors()) %>%
+   step_impute_mode(all_nominal_predictors()) %>%
+   step_dummy(all_nominal_predictors()) %>%
+   step_zv(all_predictors())
> folds_halda
#  5-fold cross-validation repeated 5 times using stratification 
# A tibble: 25 × 3
   splits           id      id2  
   <list>           <chr>   <chr>
 1 <split [291/74]> Repeat1 Fold1
 2 <split [292/73]> Repeat1 Fold2
 3 <split [292/73]> Repeat1 Fold3
 4 <split [292/73]> Repeat1 Fold4
 5 <split [293/72]> Repeat1 Fold5
 6 <split [291/74]> Repeat2 Fold1
 7 <split [292/73]> Repeat2 Fold2
 8 <split [292/73]> Repeat2 Fold3
 9 <split [292/73]> Repeat2 Fold4
10 <split [293/72]> Repeat2 Fold5
# ℹ 15 more rows
# ℹ Use `print(n = ...)` to see more rows
…
i Fold2, Repeat5: preprocessor 1/1, model 1/1
i Fold2, Repeat5: preprocessor 1/1, model 1/1 (predictions)
i Fold3, Repeat5: preprocessor 1/1
i Fold3, Repeat5: preprocessor 1/1, model 1/1
i Fold3, Repeat5: preprocessor 1/1, model 1/1 (predictions)
i Fold4, Repeat5: preprocessor 1/1
i Fold4, Repeat5: preprocessor 1/1, model 1/1
i Fold4, Repeat5: preprocessor 1/1, model 1/1 (predictions)
i Fold5, Repeat5: preprocessor 1/1
i Fold5, Repeat5: preprocessor 1/1, model 1/1
i Fold5, Repeat5: preprocessor 1/1, model 1/1 (predictions)
> res_xgb
# Resampling results
# 5-fold cross-validation repeated 5 times using stratification 
# A tibble: 25 × 6
   splits           id      id2   .metrics         .notes           .predictions     
   <list>           <chr>   <chr> <list>           <list>           <list>           
 1 <split [291/74]> Repeat1 Fold1 <tibble [7 × 4]> <tibble [4 × 4]> <tibble [74 × 6]>
 2 <split [292/73]> Repeat1 Fold2 <tibble [7 × 4]> <tibble [4 × 4]> <tibble [73 × 6]>
 3 <split [292/73]> Repeat1 Fold3 <tibble [7 × 4]> <tibble [4 × 4]> <tibble [73 × 6]>
 4 <split [292/73]> Repeat1 Fold4 <tibble [7 × 4]> <tibble [4 × 4]> <tibble [73 × 6]>
 5 <split [293/72]> Repeat1 Fold5 <tibble [7 × 4]> <tibble [4 × 4]> <tibble [72 × 6]>
 6 <split [291/74]> Repeat2 Fold1 <tibble [7 × 4]> <tibble [4 × 4]> <tibble [74 × 6]>
 7 <split [292/73]> Repeat2 Fold2 <tibble [7 × 4]> <tibble [4 × 4]> <tibble [73 × 6]>
 8 <split [292/73]> Repeat2 Fold3 <tibble [7 × 4]> <tibble [4 × 4]> <tibble [73 × 6]>
 9 <split [292/73]> Repeat2 Fold4 <tibble [7 × 4]> <tibble [4 × 4]> <tibble [73 × 6]>
10 <split [293/72]> Repeat2 Fold5 <tibble [7 × 4]> <tibble [4 × 4]> <tibble [72 × 6]>
# ℹ 15 more rows
# ℹ Use `print(n = ...)` to see more rows

There were issues with some computations:

  - Warning(s) x25: Argument 'objective' is only for custom objectives. For built-in objec...
  - Warning(s) x25: Parameter 'watchlist' has been renamed to 'evals'. This warning will b...
  - Warning(s) x25: Passed invalid argument 'info' - entries on it should be passed as dir...
  - Warning(s) x25: Passed invalid function arguments: eval_metric, nthread. These should ...

Run `show_notes(.Last.tune.result)` for more information.
> res_rf 
# Resampling results
# 5-fold cross-validation repeated 5 times using stratification 
# A tibble: 25 × 6
   splits           id      id2   .metrics         .notes           .predictions     
   <list>           <chr>   <chr> <list>           <list>           <list>           
 1 <split [291/74]> Repeat1 Fold1 <tibble [7 × 4]> <tibble [0 × 4]> <tibble [74 × 6]>
 2 <split [292/73]> Repeat1 Fold2 <tibble [7 × 4]> <tibble [0 × 4]> <tibble [73 × 6]>
 3 <split [292/73]> Repeat1 Fold3 <tibble [7 × 4]> <tibble [0 × 4]> <tibble [73 × 6]>
 4 <split [292/73]> Repeat1 Fold4 <tibble [7 × 4]> <tibble [0 × 4]> <tibble [73 × 6]>
 5 <split [293/72]> Repeat1 Fold5 <tibble [7 × 4]> <tibble [0 × 4]> <tibble [72 × 6]>
 6 <split [291/74]> Repeat2 Fold1 <tibble [7 × 4]> <tibble [0 × 4]> <tibble [74 × 6]>
 7 <split [292/73]> Repeat2 Fold2 <tibble [7 × 4]> <tibble [0 × 4]> <tibble [73 × 6]>
 8 <split [292/73]> Repeat2 Fold3 <tibble [7 × 4]> <tibble [0 × 4]> <tibble [73 × 6]>
 9 <split [292/73]> Repeat2 Fold4 <tibble [7 × 4]> <tibble [0 × 4]> <tibble [73 × 6]>
10 <split [293/72]> Repeat2 Fold5 <tibble [7 × 4]> <tibble [0 × 4]> <tibble [72 × 6]>
# ℹ 15 more rows
# ℹ Use `print(n = ...)` to see more rows
> res_log 
# Resampling results
# 5-fold cross-validation repeated 5 times using stratification 
# A tibble: 25 × 6
   splits           id      id2   .metrics         .notes           .predictions     
   <list>           <chr>   <chr> <list>           <list>           <list>           
 1 <split [291/74]> Repeat1 Fold1 <tibble [7 × 4]> <tibble [0 × 4]> <tibble [74 × 6]>
 2 <split [292/73]> Repeat1 Fold2 <tibble [7 × 4]> <tibble [0 × 4]> <tibble [73 × 6]>
 3 <split [292/73]> Repeat1 Fold3 <tibble [7 × 4]> <tibble [0 × 4]> <tibble [73 × 6]>
 4 <split [292/73]> Repeat1 Fold4 <tibble [7 × 4]> <tibble [0 × 4]> <tibble [73 × 6]>
 5 <split [293/72]> Repeat1 Fold5 <tibble [7 × 4]> <tibble [0 × 4]> <tibble [72 × 6]>
 6 <split [291/74]> Repeat2 Fold1 <tibble [7 × 4]> <tibble [0 × 4]> <tibble [74 × 6]>
 7 <split [292/73]> Repeat2 Fold2 <tibble [7 × 4]> <tibble [0 × 4]> <tibble [73 × 6]>
 8 <split [292/73]> Repeat2 Fold3 <tibble [7 × 4]> <tibble [0 × 4]> <tibble [73 × 6]>
 9 <split [292/73]> Repeat2 Fold4 <tibble [7 × 4]> <tibble [0 × 4]> <tibble [73 × 6]>
10 <split [293/72]> Repeat2 Fold5 <tibble [7 × 4]> <tibble [0 × 4]> <tibble [72 × 6]>
# ℹ 15 more rows
# ℹ Use `print(n = ...)` to see more rows
…
+   collect_metrics(res_rf) %>% mutate(model = "Random forest"),
+   collect_metrics(res_xgb) %>% mutate(model = "XGBoost")
+ ) %>%
+   select(model, .metric, mean, std_err, n) %>%
+   arrange(.metric, desc(mean))
> 
> write_csv(cv_results, "outputs/tables/table06_model_performance.csv")
>                                                                                   
> cv_results %>%
+   gt() %>%
+   fmt_number(columns = c(mean, std_err), decimals = 3) %>%
+   gtsave("outputs/tables/table06_model_performance.html")
> 
> cv_results
# A tibble: 21 × 5
   model          .metric       mean   std_err     n
   <chr>          <chr>        <dbl>     <dbl> <int>
 1 Random forest  accuracy     0.992 0.00226      25
 2 LASSO logistic accuracy     0.892 0.00655      25
 3 XGBoost        accuracy     0.810 0.00420      25
 4 Random forest  bal_accuracy 0.985 0.00550      25
 5 LASSO logistic bal_accuracy 0.756 0.0123       25
 6 XGBoost        bal_accuracy 0.533 0.00782      25
 7 Random forest  f_meas       0.995 0.00137      25
 8 LASSO logistic f_meas       0.936 0.00400      25
 9 XGBoost        f_meas       0.893 0.00239      25
10 Random forest  pr_auc       1.000 0.0000607    25
# ℹ 11 more rows
# ℹ Use `print(n = ...)` to see more rows
…
> 
> fig_pr <- oof_rf %>%
+   pr_curve(risk_label, .pred_high_risk, event_level = "second") %>%
+   autoplot() +
+   labs(title = "Out-of-fold precision-recall curve: Random forest")
> 
> ggsave(
+   "outputs/figures/fig09_oof_pr_curve.png",
+   fig_pr,
+   width = 6,
+   height = 5,
+   dpi = 600
+ )
> oof_rf 
# A tibble: 1,825 × 9
   .pred_class   .pred_not_high_risk .pred_high_risk id      id2   risk_label     .row
   <fct>                       <dbl>           <dbl> <chr>   <chr> <fct>         <int>
 1 high_risk                   0.082      0.918      Repeat1 Fold1 high_risk         3
 2 not_high_risk               0.999      0.00100    Repeat1 Fold1 not_high_risk    10
 3 not_high_risk               1.000      0.00000433 Repeat1 Fold1 not_high_risk    12
 4 not_high_risk               1.000      0.00000433 Repeat1 Fold1 not_high_risk    27
 5 not_high_risk               1.000      0.00000433 Repeat1 Fold1 not_high_risk    31
 6 high_risk                   0.094      0.906      Repeat1 Fold1 high_risk        35
 7 not_high_risk               1.000      0.000338   Repeat1 Fold1 not_high_risk    48
 8 not_high_risk               0.997      0.00267    Repeat1 Fold1 not_high_risk    53
 9 not_high_risk               0.880      0.120      Repeat1 Fold1 not_high_risk    54
10 high_risk                   0.166      0.834      Repeat1 Fold1 not_high_risk    55
# ℹ 1,815 more rows
# ℹ 2 more variables: .config <chr>, truth_num <dbl>
# ℹ Use `print(n = ...)` to see more rows
…
